module gitlab.com/my-api-master

go 1.17

require (
	cloud.google.com/go/storage v1.25.0
	github.com/appleboy/gin-jwt/v2 v2.8.0
	github.com/gin-gonic/gin v1.8.1
	github.com/go-playground/validator/v10 v10.11.0
	github.com/go-redis/redis/v8 v8.11.5
	google.golang.org/api v0.93.0
	google.golang.org/grpc v1.48.0
	google.golang.org/protobuf v1.28.1
	gorm.io/driver/sqlserver v1.3.2
	gorm.io/gorm v1.23.8
	gorm.io/plugin/dbresolver v1.2.2
)

require (
	cloud.google.com/go v0.102.1 // indirect
	cloud.google.com/go/compute v1.7.0 // indirect
	cloud.google.com/go/iam v0.3.0 // indirect
	github.com/cespare/xxhash/v2 v2.1.2 // indirect
	github.com/denisenkom/go-mssqldb v0.12.0 // indirect
	github.com/dgryski/go-rendezvous v0.0.0-20200823014737-9f7001d12a5f // indirect
	github.com/gin-contrib/sse v0.1.0 // indirect
	github.com/go-playground/locales v0.14.0 // indirect
	github.com/go-playground/universal-translator v0.18.0 // indirect
	github.com/goccy/go-json v0.9.7 // indirect
	github.com/golang-jwt/jwt/v4 v4.2.0 // indirect
	github.com/golang-sql/civil v0.0.0-20190719163853-cb61b32ac6fe // indirect
	github.com/golang-sql/sqlexp v0.0.0-20170517235910-f1bb20e5a188 // indirect
	github.com/golang/groupcache v0.0.0-20200121045136-8c9f03a8e57e // indirect
	github.com/golang/protobuf v1.5.2 // indirect
	github.com/google/go-cmp v0.5.8 // indirect
	github.com/google/uuid v1.3.0 // indirect
	github.com/googleapis/enterprise-certificate-proxy v0.1.0 // indirect
	github.com/googleapis/gax-go/v2 v2.4.0 // indirect
	github.com/jinzhu/inflection v1.0.0 // indirect
	github.com/jinzhu/now v1.1.4 // indirect
	github.com/json-iterator/go v1.1.12 // indirect
	github.com/leodido/go-urn v1.2.1 // indirect
	github.com/mattn/go-isatty v0.0.14 // indirect
	github.com/modern-go/concurrent v0.0.0-20180228061459-e0a39a4cb421 // indirect
	github.com/modern-go/reflect2 v1.0.2 // indirect
	github.com/pelletier/go-toml/v2 v2.0.1 // indirect
	github.com/ugorji/go/codec v1.2.7 // indirect
	go.opencensus.io v0.23.0 // indirect
	golang.org/x/crypto v0.0.0-20211215153901-e495a2d5b3d3 // indirect
	golang.org/x/net v0.0.0-20220624214902-1bab6f366d9e // indirect
	golang.org/x/oauth2 v0.0.0-20220622183110-fd043fe589d2 // indirect
	golang.org/x/sys v0.0.0-20220624220833-87e55d714810 // indirect
	golang.org/x/text v0.3.7 // indirect
	golang.org/x/xerrors v0.0.0-20220609144429-65e65417b02f // indirect
	google.golang.org/appengine v1.6.7 // indirect
	google.golang.org/genproto v0.0.0-20220720214146-176da50484ac // indirect
	gopkg.in/yaml.v2 v2.4.0 // indirect
)
